Wrangling review and a few new things
…
Read in the SF shapefile (data/sfo_map/tl_2017_06075_roads.shp):

Code

sfo_map <- read_sf(here("data", "sfo_map", "tl_2017_06075_roads.shp"))

st_transform(sfo_map, 4326)

Simple feature collection with 4087 features and 4 fields
Geometry type: LINESTRING
Dimension:     XY
Bounding box:  xmin: -122.5136 ymin: 37.70813 xmax: -122.3496 ymax: 37.83213
Geodetic CRS:  WGS 84
# A tibble: 4,087 × 5
   LINEARID      FULLNAME            RTTYP MTFCC                        geometry
 * <chr>         <chr>               <chr> <chr>                <LINESTRING [°]>
 1 110498938773  Hwy 101 S Off Rmp   M     S1400 (-122.4041 37.74842, -122.404 …
 2 110498937425  Hwy 101 N on Rmp    M     S1400 (-122.4744 37.80691, -122.4746…
 3 1103660229533 Ludlow Aly - No Acc M     S1780 (-122.4596 37.73853, -122.4596…
 4 1106081811301 Mission Bay Blvd N  M     S1400 (-122.3946 37.77082, -122.3929…
 5 1103666896385 25th Ave N          M     S1400 (-122.4858 37.78953, -122.4855…
 6 1103689702566 Willard N           M     S1400 (-122.457 37.77817, -122.457 3…
 7 1103689702762 25th Ave N          M     S1400 (-122.4858 37.78953, -122.4858…
 8 110498933806  Avenue N            M     S1400 (-122.3643 37.81947, -122.3638…
 9 1103689702763 25th Ave N          M     S1400 (-122.4854 37.78983, -122.4858…
10 1103677491290 Mission Bay Blvd S  M     S1400 (-122.3865 37.77086, -122.3878…
# ℹ 4,077 more rows
…
